<svg id="Group_3" data-name="Group 3" xmlns="http://www.w3.org/2000/svg" width="115.832" height="76.349" viewBox="0 0 115.832 76.349">
  <path id="Path_6" data-name="Path 6" d="M231.289,212.154,243.7,175.967l14.791,5.073L246.08,217.226Zm0,0" transform="translate(-229.14 -173.701)" fill="#498dd2"/>
  <path id="Path_7" data-name="Path 7" d="M264.1,173.9l-1.44.707a7.506,7.506,0,0,1-5.755.331l-2.406-.849a1.786,1.786,0,0,0-.424-.213l-14.813-5.071a2.142,2.142,0,0,0-2.712,1.321l-12.43,36.205a2.126,2.126,0,0,0,1.321,2.712l14.789,5.071a2.434,2.434,0,0,0,.684.117,2.154,2.154,0,0,0,2.028-1.438l11.723-34.106.8.283a11.9,11.9,0,0,0,9.081-.519l1.438-.707a7.489,7.489,0,0,1,5.708-.353l27.2,9.363A5.574,5.574,0,0,1,297,189.964c-1.155.8-2.877.8-5.141.023l-12.124-4.151a2.135,2.135,0,0,0-1.7.14,2.244,2.244,0,0,0-1.06,1.345c-.024.07-1.7,6.344-7.053,9.221-3.372,1.816-7.571,1.887-12.5.213a2.133,2.133,0,1,0-1.391,4.033A24.762,24.762,0,0,0,264,202.253a16.415,16.415,0,0,0,7.925-1.935,19.616,19.616,0,0,0,8.4-9.764l10.119,3.466c3.608,1.251,6.628,1.062,8.962-.565,3.751-2.595,3.939-7.855,3.963-8.091a2.141,2.141,0,0,0-1.438-2.075l-28.87-9.954a11.936,11.936,0,0,0-8.962.567Zm-24.483,35.474-10.754-3.68,11.014-32.149,10.755,3.68Zm0,0" transform="translate(-223.999 -168.571)"/>
  <path id="Path_8" data-name="Path 8" d="M520.806,218.023l-16.814-34.36,14.045-6.872L534.85,211.15Zm0,0" transform="translate(-421.442 -174.282)" fill="#3c92ca"/>
  <path id="Path_9" data-name="Path 9" d="M374.883,212.364l-5.072,4.67a64.791,64.791,0,0,1-15.4,10.519L327.5,240.714a2.4,2.4,0,0,1-2.1-4.317l.33-.164,14.718-7.195a2.136,2.136,0,1,0-1.863-3.844l-14.718,7.195-7.405,3.631a2.39,2.39,0,0,1-3.209-1.108,2.325,2.325,0,0,1-.117-1.816,2.377,2.377,0,0,1,1.2-1.368l5.59-2.736,15.992-7.83a2.136,2.136,0,1,0-1.863-3.844l-16.015,7.854-.614.306-7.641,3.75a2.32,2.32,0,0,1-1.816.118,2.387,2.387,0,0,1-.259-4.411l2.641-1.3,5.4-2.641,1.51-.731,12.406-6.086a2.136,2.136,0,1,0-1.862-3.844l-13.445,6.581-5.874,2.877a2.408,2.408,0,0,1-3.207-1.108,2.315,2.315,0,0,1-.117-1.816,2.377,2.377,0,0,1,1.2-1.368l10.26-5.024a2.137,2.137,0,0,0-1.864-3.845l-10.26,5.025a6.567,6.567,0,0,0-3.372,3.82A6.591,6.591,0,0,0,303.488,223a6.69,6.69,0,0,0-.708,7,6.574,6.574,0,0,0,3.821,3.373,6.666,6.666,0,0,0,2.122.354,6.444,6.444,0,0,0,.684,3.09,6.676,6.676,0,0,0,5.991,3.727,6.5,6.5,0,0,0,2.925-.684l1.509-.731a6.912,6.912,0,0,0,.637,2.334,6.676,6.676,0,0,0,5.991,3.727,6.482,6.482,0,0,0,2.925-.684L356.3,231.35a69,69,0,0,0,16.416-11.2l6.015-5.542,13.774-6.746a2.133,2.133,0,0,0,.99-2.854l-16.84-34.318a2.143,2.143,0,0,0-2.854-.99l-14.059,6.863a2.135,2.135,0,0,0-.99,2.854Zm-1.132-37.88,14.929,30.545-10.212,5-14.93-30.545Zm0,0" transform="translate(-278.134 -169.13)"/>
  <rect id="Rectangle_11" data-name="Rectangle 11" width="115.832" height="76.349" transform="translate(0 0)" fill="none"/>
</svg>
