<svg xmlns="http://www.w3.org/2000/svg" width="60.894" height="57.6" viewBox="0 0 60.894 57.6">
  <path id="Path_94" data-name="Path 94" d="M277.128,98.141c7.559.106,14.572,1.988,20.72,6.533,4.937,3.65,8.348,8.351,9.4,14.516a19.19,19.19,0,0,1-2.853,13.788c-4.192,6.709-9.961,11.783-16.49,16.084a107.9,107.9,0,0,1-11.2,6.324,1.881,1.881,0,0,1-2.06.079,1.765,1.765,0,0,1-.665-1.869c.2-1.719.385-3.44.524-5.164a1.747,1.747,0,0,0-1.768-2.128,33.535,33.535,0,0,1-16.233-6.131c-4.615-3.372-8-7.671-9.314-13.327a19.6,19.6,0,0,1,3.824-16.951c4.122-5.422,9.717-8.614,16.178-10.424A36.737,36.737,0,0,1,277.128,98.141Zm5.369,25.773-.172.02q-1.185-1.544-2.37-3.088-1.806-2.346-3.616-4.688a1.528,1.528,0,0,0-1.8-.561,1.445,1.445,0,0,0-1.02,1.421c-.009,3.953-.016,7.906,0,11.859a1.473,1.473,0,0,0,1.5,1.487,1.512,1.512,0,0,0,1.58-1.5c.025-.513.008-1.029.008-1.543,0-1.8,0-3.594,0-5.572.327.4.534.64.727.889q2.711,3.491,5.414,6.989a1.562,1.562,0,0,0,2.885-.678,4.222,4.222,0,0,0,.059-.724c0-3.547,0-7.094.007-10.641a3.109,3.109,0,0,0-.149-1.036,1.539,1.539,0,0,0-2.941.107,4.215,4.215,0,0,0-.118,1.124Q282.5,120.848,282.5,123.914Zm5.49-1.011c0,1.922-.01,3.845,0,5.768a1.531,1.531,0,0,0,1.642,1.694q3.046.026,6.093,0a1.592,1.592,0,0,0,1.645-1.545,1.617,1.617,0,0,0-1.649-1.547c-.866-.017-1.733-.005-2.6-.005-2.048,0-2.03,0-2.024-2.089,0-.525.134-.7.676-.682,1.326.039,2.654.036,3.98,0a1.6,1.6,0,0,0,1.607-1.594,1.557,1.557,0,0,0-1.584-1.508c-.865-.035-1.732-.018-2.6-.019-2.136,0-2.114,0-2.083-2.13.008-.54.211-.615.67-.606,1.272.025,2.545.028,3.818,0a1.667,1.667,0,0,0,1.776-1.532,1.584,1.584,0,0,0-1.651-1.625c-2.029-.055-4.062-.062-6.09,0-1.123.036-1.624.675-1.628,1.807C287.982,119.166,287.987,121.035,287.987,122.9Zm-30.773,0h0c0,1.923-.018,3.846.007,5.769a1.519,1.519,0,0,0,1.713,1.7q2.966.018,5.932,0a1.555,1.555,0,1,0-.033-3.1c-1.246-.011-2.493-.034-3.737.011-.589.021-.779-.112-.771-.743.037-3.033.019-6.067.016-9.1,0-1.224-.594-1.94-1.584-1.933-.965.007-1.531.676-1.54,1.873C257.2,119.218,257.215,121.06,257.215,122.9ZM268,122.879c0,2-.015,4.008.006,6.011.011,1.038.478,1.47,1.5,1.483,1.178.015,1.687-.369,1.693-1.447.025-3.98.016-7.961,0-11.942a1.348,1.348,0,0,0-.785-1.394,1.609,1.609,0,0,0-2.417,1.6C267.991,119.088,268,120.983,268,122.879Z" transform="translate(-246.637 -98.141)" fill="#fefefe"/>
</svg>
